k_iochand = {
	1000.1.1 = { change_development_level = 8 }
	1013.4.5 = {
		holder = 47 #Carwick Iochand
	}
}

c_portnamm = {
	1000.1.1 = { change_development_level = 15 }
}

c_thunderward = {
	1000.1.1 = { change_development_level = 7 }
}