k_tretun = {
	1000.1.1 = { change_development_level = 8 }
}

c_tretun = {
	1000.1.1 = { change_development_level = 9 }
}

d_roilsard = {
	1000.1.1 = { change_development_level = 11 }
}

c_roilsard = {
	1001.1.1 = { change_development_level = 12 }
	980.1.1 = {
		holder = 6	#Gregoire Roilsard
	}
}

c_saloren = {
	998.3.23 = {
		holder = 501	#Stefan sil Saloren
	}
}

c_vivinmar = {
	989.4.15 = {
		holder = 508
	}
	1001.1.12 = {
		holder = 4	#Petrus sil Vivin
	}
}


c_loopuis = {
	980.1.1 = {
		holder = 5	#Caylen sil na Loop
	}
}