e_bulwar = {
	1002.1.1 = {
		holder = sun_elvish0001	# Jaher
	}
}

k_bulwar = {
	1002.1.1 = {
		holder = sun_elvish0001	# Jaher
	}
}

d_kalib = {
	1002.1.1 = {
		liege = e_bulwar
		holder = sun_elvish0036 # Firinar Aralzuir
	}
}

d_zansap = {
	1002.1.1 = {
		liege = e_bulwar
		holder = bulwari0004 # Bavar II szel-Barseen
	}
}

d_sareyand = {
	1002.1.1 = {
		liege = e_bulwar
		holder = sun_elvish0006	# Eledas I Sarelzuir
	}
}