k_pearlsedge = {
	1000.1.1 = { change_development_level = 8 }
	988.1.1 = {
		holder = 3	#Aron Pearlman
	}
}

d_pearlywine = {
	1000.1.1 = { change_development_level = 9 }
}

c_jewelpoint = {
	1000.1.1 = { change_development_level = 9 }
}

c_the_pearls = {
	1000.1.1 = { change_development_level = 6 }
}