#k_urviksten
##d_esfjall
###c_esfjall
986 = {		#Esfjall

    # Misc
    culture = olavish
    religion = skaldhyrric_faith
	holding = tribal_holding

    # History
}
2711 = {

    # Misc
    holding = none

    # History

}
2712 = {

    # Misc
    holding = none

    # History

}

###c_urviksten
984 = {		#Urviksten

    # Misc
    culture = olavish
    religion = skaldhyrric_faith
	holding = tribal_holding

    # History
}
2713 = {

    # Misc
    holding = none

    # History

}
2714 = {

    # Misc
    holding = none

    # History

}
2715 = {

    # Misc
    holding = none

    # History

}

##d_naugsvol
###c_naugsvol
982 = {		#Naugsvol

    # Misc
    culture = olavish
    religion = skaldhyrric_faith
	holding = tribal_holding

    # History
}
2718 = {

    # Misc
    holding = none

    # History

}

###c_baldersby
983 = {		#Baldersby

    # Misc
    culture = olavish
    religion = skaldhyrric_faith
	holding = tribal_holding

    # History
}
2716 = {

    # Misc
    holding = none

    # History

}
2717 = {

    # Misc
    holding = none

    # History

}

###c_silfrborg
981 = {		#Silfrborg

    # Misc
    culture = olavish
    religion = skaldhyrric_faith
	holding = tribal_holding

    # History
}
2719 = {

    # Misc
    holding = none

    # History

}

##d_avnkaup
###c_avnkaup
978 = {		#Avnkaup

    # Misc
    culture = olavish
    religion = skaldhyrric_faith
	holding = tribal_holding

    # History
}
2721 = {

    # Misc
    holding = none

    # History

}
2722 = {

    # Misc
    holding = none

    # History

}

###c_orstengard
980 = {		#Orstengard

    # Misc
    culture = olavish
    religion = skaldhyrric_faith
	holding = tribal_holding

    # History
}
2720 = {

    # Misc
    holding = none

    # History

}

###c_nyrford
979 = {		#Nyrford

    # Misc
    culture = olavish
    religion = skaldhyrric_faith
	holding = tribal_holding

    # History
}
2723 = {

    # Misc
    holding = none

    # History

}
2724 = {

    # Misc
    holding = none

    # History

}